…
#> #   format <chr>, resource_unit_of_multiplier <chr>, mimetype_inner <lgl>, url_type <chr>, resource_unit_of_measure <chr>, mimetype <chr>,
#> #   cache_url <lgl>, name <chr>, created <chr>, url <chr>, created_at <chr>, resource_official_statistics <chr>,
#> #   resource_data_release_calendar <chr>, last_modified <chr>, position <int>, revision_id <chr>, resource_first_year_of_data <chr>,
#> #   resource_type <lgl>, resource_data_collect_other <chr>, resource_data_collect <chr>, resource_created_date <chr>
covid_csv_datasets <- covid_resources %>%
  .[format == "CSV" & !is.na(id), id] %>%
  lapply(function(x) th_get(x, limit = 100) %>% as_tibble())
#> URL: https://opend.data.go.th/get-ckan/datastore_search?resource_id=894664f5-447a-46ec-9fe2-1b6ae8f18be5&limit=100
#> URL: https://opend.data.go.th/get-ckan/datastore_search?resource_id=a783d27f-4792-4e9d-80d2-9697d7c01b4c&limit=100
#> URL: https://opend.data.go.th/get-ckan/datastore_search?resource_id=83373e0f-e2f4-43ce-af08-a50b3ac2a013&limit=100
#> URL: https://opend.data.go.th/get-ckan/datastore_search?resource_id=026c8d31-0d51-49b7-9dc2-8373e7cef440&limit=100
#> URL: https://opend.data.go.th/get-ckan/datastore_search?resource_id=be19a8ad-ab48-4081-b04a-8035b5b2b8d6&limit=100
covid_csv_datasets
#> [[1]]
#> # A tibble: 100 × 12
#>    `_id`     No. announce_date       `Notified date`     sex     age Unit  nationality province_of_isolat… risk  province_of_ons… district_of_ons…
#>    <int>   <int> <chr>               <chr>               <chr> <int> <chr> <chr>       <chr>               <chr> <chr>            <chr>           
#>  1     1 3905873 2022-12-04T00:00:00 2022-11-04T00:00:00 หญิง      54 ปี     Thailand    เชียงใหม่             อยู่ระ… "เชียงใหม่"        จอมทอง          
#>  2     2 3905874 2022-12-04T00:00:00 2022-11-04T00:00:00 หญิง      36 ปี     Thailand    เชียงใหม่             อยู่ระ… "เชียงใหม่"        เมืองเชียงใหม่     
#>  3     3 3905875 2022-12-04T00:00:00 2022-11-04T00:00:00 หญิง      31 ปี     Thailand    เชียงใหม่             อยู่ระ… "เชียงใหม่"        ดอยหล่อ          
#>  4     4 3905876 2022-12-04T00:00:00 2022-11-04T00:00:00 ชาย      37 ปี     Thailand    เชียงใหม่             อยู่ระ… ""               ต่างจังหวัด        
#>  5     5 3905877 2022-12-04T00:00:00 2022-11-04T00:00:00 หญิง      33 ปี     Thailand    เชียงใหม่             อยู่ระ… "เชียงใหม่"        แม่ริม            
#>  6     6 3905878 2022-12-04T00:00:00 2022-11-04T00:00:00 หญิง      12 ปี     Thailand    เชียงใหม่             อยู่ระ… "เชียงใหม่"        แม่แตง           
#>  7     7 3905879 2022-12-04T00:00:00 2022-11-04T00:00:00 ชาย      32 ปี     Thailand    เชียงใหม่             สัมผัส… "เชียงใหม่"        แม่ริม            
#>  8     8 3905880 2022-12-04T00:00:00 2022-11-04T00:00:00 หญิง      55 ปี     Thailand    เชียงใหม่             อยู่ระ… "เชียงใหม่"        สารภี            
#>  9     9 3905881 2022-12-04T00:00:00 2022-11-04T00:00:00 หญิง      45 ปี     Thailand    เชียงใหม่             อยู่ระ… "เชียงใหม่"        เมืองเชียงใหม่     
#> 10    10 3905882 2022-12-04T00:00:00 2022-11-04T00:00:00 ชาย      42 ปี     Thailand    เชียงใหม่             อยู่ระ… "เชียงใหม่"        สันกำแพง         
#> # … with 90 more rows
#> 
#> [[2]]
#> # A tibble: 100 × 12
#>    `_id`     No. announce_date       `Notified date`     sex     age Unit  nationality province_of_isolat… risk  province_of_ons… district_of_ons…
#>    <int>   <int> <chr>               <chr>               <chr> <int> <chr> <chr>       <chr>               <chr> <chr>            <chr>           
#>  1     1 2869617 2022-02-28T00:00:00 2022-02-27T00:00:00 ชาย      41 ปี     Thailand    พะเยา               สัมผัส… พะเยา            เมืองพะเยา       
#>  2     2 2869618 2022-02-28T00:00:00 2022-02-27T00:00:00 หญิง      45 ปี     Thailand    พะเยา               สัมผัส… พะเยา            เมืองพะเยา       
#>  3     3 2869619 2022-02-28T00:00:00 2022-02-27T00:00:00 หญิง      40 ปี     Thailand    พะเยา               สัมผัส… พะเยา            เมืองพะเยา       
#>  4     4 2869620 2022-02-28T00:00:00 2022-02-27T00:00:00 ชาย      44 ปี     Thailand    พะเยา               สัมผัส… พะเยา            เมืองพะเยา       
#>  5     5 2869621 2022-02-28T00:00:00 2022-02-27T00:00:00 ชาย      11 ปี     Thailand    พะเยา               สัมผัส… พะเยา            เมืองพะเยา       
#>  6     6 2869622 2022-02-28T00:00:00 2022-02-27T00:00:00 หญิง      19 ปี     Thailand    พะเยา               อยู่ระ… พะเยา            เมืองพะเยา       
#>  7     7 2869623 2022-02-28T00:00:00 2022-02-27T00:00:00 หญิง      22 ปี     Thailand    พะเยา               อยู่ระ… พะเยา            เมืองพะเยา       
#>  8     8 2869624 2022-02-28T00:00:00 2022-02-27T00:00:00 ชาย      61 ปี     Thailand    พะเยา               สัมผัส… พะเยา            แม่ใจ            
#>  9     9 2869625 2022-02-28T00:00:00 2022-02-27T00:00:00 หญิง      46 ปี     Thailand    พะเยา               สัมผัส… พะเยา            แม่ใจ            
#> 10    10 2869626 2022-02-28T00:00:00 2022-02-27T00:00:00 ชาย      61 ปี     Thailand    พะเยา               สัมผัส… พะเยา            แม่ใจ            
#> # … with 90 more rows
#> 
#> [[3]]
#> # A tibble: 100 × 12
#>    `_id`     No. announce_date       `Notified date`     sex     age Unit  nationality province_of_isolat… risk  province_of_ons… district_of_ons…
#>    <int>   <int> <chr>               <chr>               <chr> <int> <chr> <chr>       <chr>               <chr> <chr>            <chr>           
#>  1     1 1859158 2021-10-26T00:00:00 2021-10-25T00:00:00 ชาย      20 ปี     "Thailand"  ลำปาง               อื่นๆ   ลำปาง            เมืองลำปาง       
#>  2     2 1859159 2021-10-26T00:00:00 2021-10-25T00:00:00 หญิง      42 ปี     "Thailand"  ลำปาง               อื่นๆ   ลำปาง            เมืองลำปาง       
#>  3     3 1859160 2021-10-26T00:00:00 2021-10-25T00:00:00 หญิง      33 ปี     "Thailand"  ลำปาง               ไปสถ… ลำปาง            ห้างฉัตร          
#>  4     4 1859161 2021-10-26T00:00:00 2021-10-25T00:00:00 หญิง      52 ปี     "Thailand"  ลำปาง               ไปสถ… ลำปาง            ห้างฉัตร          
#>  5     5 1859162 2021-10-26T00:00:00 2021-10-25T00:00:00 หญิง      84 ปี     "Thailand"  ลำปาง               สัมผัส… ลำปาง            เมืองลำปาง       
#>  6     6 1859163 2021-10-26T00:00:00 2021-10-25T00:00:00 หญิง      42 ปี     "Thailand"  ลำปาง               สัมผัส… ลำปาง            เมืองลำปาง       
#>  7     7 1859164 2021-10-26T00:00:00 2021-10-25T00:00:00 หญิง      62 ปี     "Thailand"  ลำปาง               สัมผัส… ลำปาง            เมืองลำปาง       
#>  8     8 1859165 2021-10-26T00:00:00 2021-10-25T00:00:00 ชาย      50 ปี     "Thailand"  ลำปาง               อื่นๆ   ลำปาง            เมืองลำปาง       
#>  9     9 1859166 2021-10-26T00:00:00 2021-10-25T00:00:00 ชาย      24 ปี     ""          ลำพูน                อื่นๆ   ลำพูน             เมือง            
#> 10    10 1859167 2021-10-26T00:00:00 2021-10-25T00:00:00 หญิง       5 ปี     ""          ลำพูน                อื่นๆ   ลำพูน             ทุ่งหัวช้าง         
#> # … with 90 more rows
#> 
#> [[4]]
#> # A tibble: 100 × 12
#>    `_id`    No. announce_date       `Notified date`     sex     age Unit  nationality province_of_isolati… risk  province_of_ons… district_of_ons…
#>    <int>  <int> <chr>               <chr>               <chr> <int> <chr> <chr>       <chr>                <chr> <chr>            <chr>           
#>  1     1 816990 2021-12-08T00:00:00 2021-11-08T00:00:00 ชาย       7 ปี     Thailand    เชียงราย              อื่นๆ   ""               ""              
#>  2     2 816991 2021-12-08T00:00:00 2021-11-08T00:00:00 ชาย       1 ปี     Thailand    เชียงราย              อื่นๆ   ""               ""              
#>  3     3 816992 2021-12-08T00:00:00 2021-11-08T00:00:00 ชาย      35 ปี     Thailand    เชียงราย              อื่นๆ   ""               ""              
#>  4     4 816993 2021-12-08T00:00:00 2021-11-08T00:00:00 หญิง      33 ปี     Thailand    เชียงราย              อื่นๆ   ""               ""              
#>  5     5 816994 2021-12-08T00:00:00 2021-11-08T00:00:00 หญิง      14 ปี     Thailand    เชียงราย              สัมผัส… ""               ""              
#>  6     6 816995 2021-12-08T00:00:00 2021-11-08T00:00:00 ชาย      39 ปี     Thailand    เชียงราย              อื่นๆ   ""               ""              
#>  7     7 816996 2021-12-08T00:00:00 2021-11-08T00:00:00 ชาย      45 ปี     Thailand    เชียงราย              อื่นๆ   ""               ""              
#>  8     8 816997 2021-12-08T00:00:00 2021-11-08T00:00:00 หญิง      32 ปี     Thailand    เชียงราย              อื่นๆ   ""               ""              
#>  9     9 816998 2021-12-08T00:00:00 2021-11-08T00:00:00 หญิง       7 ปี     Thailand    เชียงราย              อื่นๆ   ""               ""              
#> 10    10 816999 2021-12-08T00:00:00 2021-11-08T00:00:00 ชาย       8 ปี     Thailand    เชียงราย              สัมผัส… ""               ""              
#> # … with 90 more rows
#> 
#> [[5]]
#> # A tibble: 100 × 12
#>    `_id`   No. announce_date       sex   age   Unit  nationality province_of_isolation risk      province_of_ons… district_of_ons… `Notified date`
#>    <int> <int> <chr>               <chr> <chr> <chr> <chr>       <chr>                 <chr>     <chr>            <chr>            <chr>          
#>  1     1     1 2020-12-01T00:00:00 หญิง   61    ปี     China       กรุงเทพมหานคร          คนต่างชาติ… กรุงเทพมหานคร     ""               <NA>           
#>  2     2     2 2020-01-17T00:00:00 หญิง   74    ปี     China       กรุงเทพมหานคร          คนต่างชาติ… กรุงเทพมหานคร     ""               <NA>           
#>  3     3     3 2020-01-22T00:00:00 หญิง   73    ปี     Thailand    นครปฐม                คนต่างชาติ… นครปฐม           "เมือง"           <NA>           
#>  4     4     4 2020-01-22T00:00:00 ชาย   68    ปี     China       กรุงเทพมหานคร          คนต่างชาติ… กรุงเทพมหานคร     ""               <NA>           
#>  5     5     5 2020-01-24T00:00:00 หญิง   66    ปี     China       นนทบุรี                 คนต่างชาติ… กรุงเทพมหานคร     ""               <NA>           
#>  6     6     6 2020-01-25T00:00:00 หญิง   33    ปี     China       กรุงเทพมหานคร          คนต่างชาติ… กรุงเทพมหานคร     ""               <NA>           
#>  7     7     7 2020-01-26T00:00:00 หญิง   57    ปี     China       กรุงเทพมหานคร          คนต่างชาติ… กรุงเทพมหานคร     ""               <NA>           
#>  8     8     8 2020-01-26T00:00:00 หญิง   73    ปี     China       ประจวบคีรีขันธ์           คนต่างชาติ… ประจวบคีรีขันธ์      "หัวหิน"           <NA>           
#>  9     9     9 2020-01-28T00:00:00 ชาย   63    ปี     China       กรุงเทพมหานคร          คนต่างชาติ… กรุงเทพมหานคร     ""               <NA>           
#> 10    10    10 2020-01-28T00:00:00 หญิง   28    ปี     China       นนทบุรี                 คนต่างชาติ… นนทบุรี            ""               <NA>           
#> # … with 90 more rows
…
